date,time CST,camera,lens,description,imgId,heading,lat,lon,exposure,gain,focal_len,f_number,pitch,roll,number_bright_stars,true rotation,true latitude,true longitude,distortion_corrected,use_center_px,center_px_0,center_px_1,calc_succeeded
7 January 2020,17:51:12,BlackFly,Unknown_R,Rotation,0,0.158655,34.2226,-88.2121,301752,35.9,12,1.8,,,30,0,34.7304,-86.5861,FALSE,FALSE,1266.83040365,762.284077962,TRUE
7 January 2020,17:52:50,BlackFly,Unknown_R,Rotation,45,45.7211,35.0604,-88.2048,301752,35.9,12,1.8,,,30,45,34.7304,-86.5861,FALSE,FALSE,1177.22835286,1195.81937663,TRUE
7 January 2020,17:53:50,BlackFly,Unknown_R,Rotation,90,89.7556,35.7365,-87.3118,301752,35.9,12,1.8,,,30,90,34.7304,-86.5861,FALSE,FALSE,1577.72591146,986.596272786,TRUE
7 January 2020,17:57:36,BlackFly,Unknown_R,Rotation,135,134.318,35.1636,-85.9845,301752,35.9,12,1.8,,,30,135,34.7304,-86.5861,FALSE,FALSE,1563.25272624,1139.28605143,TRUE
7 January 2020,17:57:58,BlackFly,Unknown_R,Rotation,180,-179.22,34.974,-85.4873,301752,35.9,12,1.8,,,30,180,34.7304,-86.5861,FALSE,FALSE,1262.51291911,1213.25089518,TRUE
7 January 2020,17:59:00,BlackFly,Unknown_R,Rotation,225,-135.896,34.0539,-85.5652,301752,35.9,12,1.8,,,30,-135,34.7304,-86.5861,FALSE,FALSE,1187.30019124,1344.01605225,TRUE
7 January 2020,17:59:30,BlackFly,Unknown_R,Rotation,270,-84.0743,33.342,-86.4463,301752,35.9,12,1.8,,,30,-90,34.7304,-86.5861,FALSE,FALSE,822.689198812,438.588694255,TRUE
7 January 2020,18:00:44,BlackFly,Unknown_R,Rotation,315,-46.6341,33.4528,-87.8574,301752,35.9,12,1.8,,,30,-45,34.7304,-86.5861,FALSE,FALSE,917.278554281,942.875719706,TRUE
,,,,,,,,,,,,,,,,,,,,,,,
7 January 2020,17:51:12,BlackFly,Unknown_R,Rotation,0,-0.340979,34.1306,-147.342,301752,35.9,12,1.8,,,30,0,34.7304,-86.5861,FALSE,TRUE,1224.5,1024.5,TRUE
7 January 2020,17:52:50,BlackFly,Unknown_R,Rotation,45,44.7517,35.0784,-147.363,301752,35.9,12,1.8,,,30,45,34.7304,-86.5861,FALSE,TRUE,1224.5,1024.5,TRUE
7 January 2020,17:53:50,BlackFly,Unknown_R,Rotation,90,90.0845,35.668,-146.478,301752,35.9,12,1.8,,,30,90,34.7304,-86.5861,FALSE,TRUE,1224.5,1024.5,TRUE
7 January 2020,17:57:36,BlackFly,Unknown_R,Rotation,135,135.897,35.1129,-145.112,301752,35.9,12,1.8,,,30,135,34.7304,-86.5861,FALSE,TRUE,1224.5,1024.5,TRUE
7 January 2020,17:57:58,BlackFly,Unknown_R,Rotation,180,-178.819,34.9672,-144.619,301752,35.9,12,1.8,,,30,180,34.7304,-86.5861,FALSE,TRUE,1224.5,1024.5,TRUE
7 January 2020,17:59:00,BlackFly,Unknown_R,Rotation,225,-133.745,33.973,-144.702,301752,35.9,12,1.8,,,30,-135,34.7304,-86.5861,FALSE,TRUE,1224.5,1024.5,TRUE
7 January 2020,17:59:30,BlackFly,Unknown_R,Rotation,270,-88.8263,33.4371,-145.648,301752,35.9,12,1.8,,,30,-90,34.7304,-86.5861,FALSE,TRUE,1224.5,1024.5,TRUE
7 January 2020,18:00:44,BlackFly,Unknown_R,Rotation,315,-45.0656,33.4083,-147.01,301752,35.9,12,1.8,,,30,-45,34.7304,-86.5861,FALSE,TRUE,1224.5,1024.5,TRUE
,,,,,,,,,,,,,,,,,,,,,,,
8 January 2020,05:50:08,BlackFly,Unknown_R,Rotation,0,1.15464,34.3492,-88.3821,651701,30.2,12,1.8,,,30,0,34.7304,-86.5861,FALSE,FALSE,1346.56953939,1290.97180176,TRUE
8 January 2020,05:51:30,BlackFly,Unknown_R,Rotation,45,40.302,35.4043,-88.212,651701,30.2,12,1.8,,,30,45,34.7304,-86.5861,FALSE,FALSE,919.442220052,796.472829183,TRUE
8 January 2020,05:51:48,BlackFly,Unknown_R,Rotation,90,90.8005,35.962,-87.2408,651701,30.2,12,1.8,,,30,90,34.7304,-86.5861,FALSE,FALSE,1060.5684611,1068.26749674,TRUE
8 January 2020,05:53:04,BlackFly,Unknown_R,Rotation,135,135.572,35.9204,-85.6669,651701,30.2,12,1.8,,,30,135,34.7304,-86.5861,FALSE,FALSE,1143.98819987,869.103902181,TRUE
8 January 2020,05:54:14,BlackFly,Unknown_R,Rotation,180,-179.536,35.1027,-84.9618,651701,30.2,12,1.8,,,30,180,34.7304,-86.5861,FALSE,FALSE,1322.63364665,807.362976074,TRUE
8 January 2020,05:55:00,BlackFly,Unknown_R,Rotation,225,-135.771,34.096,-85.5674,651701,30.2,12,1.8,,,30,-135,34.7304,-86.5861,FALSE,FALSE,1534.93556722,968.784179688,TRUE
8 January 2020,05:56:00,BlackFly,Unknown_R,Rotation,270,-92.5709,33.6117,-86.5105,651701,30.2,12,1.8,,,30,-90,34.7304,-86.5861,FALSE,FALSE,1104.5927124,1337.08805339,TRUE
8 January 2020,05:56:40,BlackFly,Unknown_R,Rotation,315,-46.5408,33.7221,-87.9185,651701,30.2,12,1.8,,,30,-45,34.7304,-86.5861,FALSE,FALSE,1139.868632,1135.95115153,TRUE
,,,,,,,,,,,,,,,,,,,,,,,
8 January 2020,05:50:08,BlackFly,Unknown_R,Rotation,0,-0.263464,34.3556,-88.3795,651701,30.2,12,1.8,,,30,0,34.7304,-86.5861,FALSE,TRUE,1224.5,1024.5,TRUE
8 January 2020,05:51:30,BlackFly,Unknown_R,Rotation,45,44.8244,35.386,-88.2432,651701,30.2,12,1.8,,,30,45,34.7304,-86.5861,FALSE,TRUE,1224.5,1024.5,TRUE
8 January 2020,05:51:48,BlackFly,Unknown_R,Rotation,90,90.3241,35.9895,-87.2369,651701,30.2,12,1.8,,,30,90,34.7304,-86.5861,FALSE,TRUE,1224.5,1024.5,TRUE
8 January 2020,05:53:04,BlackFly,Unknown_R,Rotation,135,136.275,35.9042,-85.5905,651701,30.2,12,1.8,,,30,135,34.7304,-86.5861,FALSE,TRUE,1224.5,1024.5,TRUE
8 January 2020,05:54:14,BlackFly,Unknown_R,Rotation,180,-178.372,35.0973,-85.0047,651701,30.2,12,1.8,,,30,180,34.7304,-86.5861,FALSE,TRUE,1224.5,1024.5,TRUE
8 January 2020,05:55:00,BlackFly,Unknown_R,Rotation,225,-133.698,34.0815,-85.6018,651701,30.2,12,1.8,,,30,-135,34.7304,-86.5861,FALSE,TRUE,1224.5,1024.5,TRUE
8 January 2020,05:56:00,BlackFly,Unknown_R,Rotation,270,-89.3015,33.6514,-86.4911,651701,30.2,12,1.8,,,30,-90,34.7304,-86.5861,FALSE,TRUE,1224.5,1024.5,TRUE
8 January 2020,05:56:40,BlackFly,Unknown_R,Rotation,315,-44.9448,33.6755,-87.9603,651701,30.2,12,1.8,,,30,-45,34.7304,-86.5861,FALSE,TRUE,1224.5,1024.5,TRUE
,,,,,,,,,,,,,,,,,,,,,,,
21 January 2020,17:57:12,BlackFly,Unknown_R,Rotation 1,0,-0.447385,34.2539,-88.4341,100000,20,12,1.8,,,30,0,34.7304,-86.5861,FALSE,FALSE,1211.38978068,1349.12141927,TRUE
21 January 2020,17:57:36,BlackFly,Unknown_R,Rotation 1,45,44.2779,35.161,-88.1474,100000,20,12,1.8,,,30,45,34.7304,-86.5861,FALSE,FALSE,1012.46927897,1190.55808512,TRUE
21 January 2020,17:58:06,BlackFly,Unknown_R,Rotation 1,90,89.1484,35.6347,-87.3609,100000,20,12,1.8,,,30,90,34.7304,-86.5861,FALSE,FALSE,985.967325846,947.136967977,TRUE
21 January 2020,17:58:30,BlackFly,Unknown_R,Rotation 1,135,133.998,35.3497,-86.4236,100000,20,12,1.8,,,30,135,34.7304,-86.5861,FALSE,FALSE,1135.08072917,751.866190592,TRUE
21 January 2020,17:58:54,BlackFly,Unknown_R,Rotation 1,180,178.935,34.8872,-85.5136,100000,20,12,1.8,,,30,180,34.7304,-86.5861,FALSE,FALSE,1404.93888346,740.674743652,TRUE
21 January 2020,17:59:44,BlackFly,Unknown_R,Rotation 1,225,-136.056,34.0142,-85.6418,100000,20,12,1.8,,,30,-135,34.7304,-86.5861,FALSE,FALSE,1593.93631999,917.296539307,TRUE
21 January 2020,18:00:06,BlackFly,Unknown_R,Rotation 1,270,-85.5372,33.363,-86.3703,100000,20,12,1.8,,,30,-90,34.7304,-86.5861,FALSE,FALSE,1318.46268717,692.029836019,TRUE
21 January 2020,18:00:36,BlackFly,Unknown_R,Rotation 1,315,-46.1764,33.7352,-87.2056,100000,20,12,1.8,,,30,-45,34.7304,-86.5861,FALSE,FALSE,1393.68526204,1358.9847819,TRUE
,,,,,,,,,,,,,,,,,,,,,,,
21 January 2020,18:02:02,BlackFly,Unknown_R,Rotation 2,0,-1.34749,34.1037,-88.6278,100000,30,12,1.8,,,30,0,34.7304,-86.5861,FALSE,FALSE,1165.07036336,1357.497111,TRUE
21 January 2020,18:02:38,BlackFly,Unknown_R,Rotation 2,45,43.2199,35.17,-87.8439,100000,30,12,1.8,,,30,45,34.7304,-86.5861,FALSE,FALSE,1378.40142822,626.613800049,TRUE
21 January 2020,18:02:50,BlackFly,Unknown_R,Rotation 2,90,87.1226,35.7835,-86.8199,100000,30,12,1.8,,,30,90,34.7304,-86.5861,FALSE,FALSE,831.209116618,783.671020508,TRUE
21 January 2020,18:03:04,BlackFly,Unknown_R,Rotation 2,135,133.287,35.3126,-86.3744,100000,30,12,1.8,,,30,135,34.7304,-86.5861,FALSE,FALSE,1173.7341512,708.316375732,TRUE
21 January 2020,18:03:18,BlackFly,Unknown_R,Rotation 2,180,176.999,34.6997,-85.8257,100000,30,12,1.8,,,30,180,34.7304,-86.5861,FALSE,FALSE,1543.55558268,711.126139323,TRUE
21 January 2020,18:03:32,BlackFly,Unknown_R,Rotation 2,225,-136.698,33.9824,-85.6378,100000,30,12,1.8,,,30,-135,34.7304,-86.5861,FALSE,FALSE,1629.14005534,947.757120768,TRUE
21 January 2020,18:03:44,BlackFly,Unknown_R,Rotation 2,270,-91.8784,33.3909,-86.5987,100000,30,12,1.8,,,30,-90,34.7304,-86.5861,FALSE,FALSE,944.740905762,1277.28828939,TRUE
21 January 2020,18:03:54,BlackFly,Unknown_R,Rotation 2,315,-46.7948,33.7805,-87.2535,100000,30,12,1.8,,,30,-45,34.7304,-86.5861,FALSE,FALSE,1365.90476481,1383.34696452,TRUE
,,,,,,,,,,,,,,,,,,,,,,,
21 January 2020,17:57:12,BlackFly,Unknown_R,Rotation 1,0,-0.415307,34.2603,-88.4437,100000,20,12,1.8,,,30,0,34.7304,-86.5861,TRUE,FALSE,1211.38978068,1349.12141927,TRUE
21 January 2020,17:57:36,BlackFly,Unknown_R,Rotation 1,45,44.2345,35.1932,-88.1448,100000,20,12,1.8,,,30,45,34.7304,-86.5861,TRUE,FALSE,1012.46927897,1190.55808512,TRUE
21 January 2020,17:58:06,BlackFly,Unknown_R,Rotation 1,90,88.9866,35.6467,-87.3316,100000,20,12,1.8,,,30,90,34.7304,-86.5861,TRUE,FALSE,985.967325846,947.136967977,TRUE
21 January 2020,17:58:30,BlackFly,Unknown_R,Rotation 1,135,134.275,35.3717,-86.435,100000,20,12,1.8,,,30,135,34.7304,-86.5861,TRUE,FALSE,1135.08072917,751.866190592,TRUE
21 January 2020,17:58:54,BlackFly,Unknown_R,Rotation 1,180,178.891,34.9142,-85.5403,100000,20,12,1.8,,,30,180,34.7304,-86.5861,TRUE,FALSE,1404.93888346,740.674743652,TRUE
21 January 2020,17:59:44,BlackFly,Unknown_R,Rotation 1,235,134.275,35.3717,-86.435,100000,20,12,1.8,,,30,-135,34.7304,-86.5861,TRUE,FALSE,1593.93631999,917.296539307,TRUE
21 January 2020,18:00:06,BlackFly,Unknown_R,Rotation 1,270,-91.1099,33.3873,-86.3337,100000,20,12,1.8,,,30,-90,34.7304,-86.5861,TRUE,FALSE,1318.46268717,692.029836019,TRUE
21 January 2020,18:00:36,BlackFly,Unknown_R,Rotation 1,315,-46.1696,33.7673,-87.209,100000,20,12,1.8,,,30,-45,34.7304,-86.5861,TRUE,FALSE,1393.68526204,1358.9847819,TRUE
,,,,,,,,,,,,,,,,,,,,,,,
21 January 2020,18:02:02,BlackFly,Unknown_R,Rotation 2,0,-1.38772,34.1409,-88.6559,100000,30,12,1.8,,,30,0,34.7304,-86.5861,TRUE,FALSE,1165.07036336,1357.497111,TRUE
21 January 2020,18:02:38,BlackFly,Unknown_R,Rotation 2,45,43.758,35.1757,-87.8693,100000,30,12,1.8,,,30,45,34.7304,-86.5861,TRUE,FALSE,1378.40142822,626.613800049,TRUE
21 January 2020,18:02:50,BlackFly,Unknown_R,Rotation 2,90,91.197,35.7952,-86.8049,100000,30,12,1.8,,,30,90,34.7304,-86.5861,TRUE,FALSE,831.209116618,783.671020508,TRUE
21 January 2020,18:03:04,BlackFly,Unknown_R,Rotation 2,135,139.002,35.3344,-86.3768,100000,30,12,1.8,,,30,135,34.7304,-86.5861,TRUE,FALSE,1173.7341512,708.316375732,TRUE
21 January 2020,18:03:18,BlackFly,Unknown_R,Rotation 2,180,-179.442,34.6491,-85.7972,100000,30,12,1.8,,,30,180,34.7304,-86.5861,TRUE,FALSE,1543.55558268,711.126139323,TRUE
21 January 2020,18:03:32,BlackFly,Unknown_R,Rotation 2,235,-136.713,34.0206,-85.6639,100000,30,12,1.8,,,30,-135,34.7304,-86.5861,TRUE,FALSE,1629.14005534,947.757120768,TRUE
21 January 2020,18:03:44,BlackFly,Unknown_R,Rotation 2,270,-91.3162,33.4068,-86.6005,100000,30,12,1.8,,,30,-90,34.7304,-86.5861,TRUE,FALSE,944.740905762,1277.28828939,TRUE
21 January 2020,18:03:54,BlackFly,Unknown_R,Rotation 2,315,-46.6582,33.8171,-87.2704,100000,30,12,1.8,,,30,-45,34.7304,-86.5861,TRUE,FALSE,1365.90476481,1383.34696452,TRUE
,,,,,,,,,,,,,,,,,,,,,,,
21 January 2020,17:57:12,BlackFly,Unknown_R,Rotation 1,0,-0.274866,34.2519,-147.635,100000,20,12,1.8,,,30,0,34.7304,-86.5861,FALSE,TRUE,1224.5,1024.5,TRUE
21 January 2020,17:57:36,BlackFly,Unknown_R,Rotation 1,45,44.7065,35.1706,-147.282,100000,20,12,1.8,,,30,45,34.7304,-86.5861,FALSE,TRUE,1224.5,1024.5,TRUE
21 January 2020,17:58:06,BlackFly,Unknown_R,Rotation 1,90,90.0328,35.6641,-146.476,100000,20,12,1.8,,,30,90,34.7304,-86.5861,FALSE,TRUE,1224.5,1024.5,TRUE
21 January 2020,17:58:30,BlackFly,Unknown_R,Rotation 1,135,135.571,35.3588,-145.562,100000,20,12,1.8,,,30,135,34.7304,-86.5861,FALSE,TRUE,1224.5,1024.5,TRUE
21 January 2020,17:58:54,BlackFly,Unknown_R,Rotation 1,180,-178.935,34.885,-144.65,100000,20,12,1.8,,,30,180,34.7304,-86.5861,FALSE,TRUE,1224.5,1024.5,TRUE
21 January 2020,17:59:44,BlackFly,Unknown_R,Rotation 1,225,-133.91,34.0097,-144.779,100000,20,12,1.8,,,30,-135,34.7304,-86.5861,FALSE,TRUE,1224.5,1024.5,TRUE
21 January 2020,18:00:06,BlackFly,Unknown_R,Rotation 1,270,-89.2818,33.4033,-145.465,100000,20,12,1.8,,,30,-90,34.7304,-86.5861,FALSE,TRUE,1224.5,1024.5,TRUE
21 January 2020,18:00:36,BlackFly,Unknown_R,Rotation 1,315,-44.7765,33.7671,-146.347,100000,20,12,1.8,,,30,-45,34.7304,-86.5861,FALSE,TRUE,1224.5,1024.5,TRUE
,,,,,,,,,,,,,,,,,,,,,,,
21 January 2020,18:02:02,BlackFly,Unknown_R,Rotation 2,0,-0.561597,34.1564,-147.816,100000,30,12,1.8,,,30,0,34.7304,-86.5861,FALSE,TRUE,1224.5,1024.5,TRUE
21 January 2020,18:02:38,BlackFly,Unknown_R,Rotation 2,45,44.8488,35.1634,-146.993,100000,30,12,1.8,,,30,45,34.7304,-86.5861,FALSE,TRUE,1224.5,1024.5,TRUE
21 January 2020,18:02:50,BlackFly,Unknown_R,Rotation 2,90,90.4414,35.7953,-145.94,100000,30,12,1.8,,,30,90,34.7304,-86.5861,FALSE,TRUE,1224.5,1024.5,TRUE
21 January 2020,18:03:04,BlackFly,Unknown_R,Rotation 2,135,135.67,35.3376,-145.487,100000,30,12,1.8,,,30,135,34.7304,-86.5861,FALSE,TRUE,1224.5,1024.5,TRUE
21 January 2020,18:03:18,BlackFly,Unknown_R,Rotation 2,180,-179.055,34.6402,-144.916,100000,30,12,1.8,,,30,180,34.7304,-86.5861,FALSE,TRUE,1224.5,1024.5,TRUE
21 January 2020,18:03:32,BlackFly,Unknown_R,Rotation 2,225,-133.834,33.9916,-144.806,100000,30,12,1.8,,,30,-135,34.7304,-86.5861,FALSE,TRUE,1224.5,1024.5,TRUE
21 January 2020,18:03:44,BlackFly,Unknown_R,Rotation 2,270,-89.4269,33.4182,-145.727,100000,30,12,1.8,,,30,-90,34.7304,-86.5861,FALSE,TRUE,1224.5,1024.5,TRUE
21 January 2020,18:03:54,BlackFly,Unknown_R,Rotation 2,315,-44.753,33.81,-146.435,100000,30,12,1.8,,,30,-45,34.7304,-86.5861,FALSE,TRUE,1224.5,1024.5,TRUE
,,,,,,,,,,,,,,,,,,,,,,,
21 January 2020,18:16:34,PointGrey,Computar,Rotation,0,-44.3865,33.832,-86.8855,100000,20,50,1.8,,,16,0,34.7304,-86.5861,FALSE,FALSE,1087.16477458,625.779846191,TRUE
21 January 2020,18:16:46,PointGrey,Computar,Rotation,45,44.2866,34.7438,-87.4968,100000,20,50,1.8,,,14,45,34.7304,-86.5861,FALSE,FALSE,1022.75522868,357.15490977,TRUE
21 January 2020,18:16:58,PointGrey,Computar,Rotation,90,89.8051,35.4962,-87.2573,100000,20,50,1.8,,,13,90,34.7304,-86.5861,FALSE,FALSE,761.832814535,569.375559489,TRUE
21 January 2020,18:17:08,PointGrey,Computar,Rotation,135,134.22,35.3523,-87.1491,100000,20,50,1.8,,,17,135,34.7304,-86.5861,FALSE,FALSE,1179.83347575,579.172749837,TRUE
21 January 2020,18:17:16,PointGrey,Computar,Rotation,180,178.81,34.7305,-85.6351,100000,20,50,1.8,,,12,180,34.7304,-86.5861,FALSE,FALSE,1387.57397461,407.626195272,TRUE
21 January 2020,18:17:28,PointGrey,Computar,Rotation,225,-132.698,34.0533,-85.8129,100000,20,50,1.8,,,12,-135,34.7304,-86.5861,FALSE,FALSE,726.192026774,382.155426025,TRUE
21 January 2020,18:17:40,PointGrey,Computar,Rotation,270,-91.0812,33.6804,-86.6823,100000,20,50,1.8,,,17,-90,34.7304,-86.5861,FALSE,FALSE,690.827911377,897.524617513,TRUE
21 January 2020,18:17:50,PointGrey,Computar,Rotation,315,-44.6339,33.5132,-87.3602,100000,20,50,1.8,,,15,-45,34.7304,-86.5861,FALSE,FALSE,1132.70336914,644.074493408,TRUE
,,,,,,,,,,,,,,,,,,,,,,,
21 January 2020,18:16:34,PointGrey,Computar,Rotation,0,-44.7333,33.832,-146.024,100000,20,50,1.8,,,16,0,34.7304,-86.5861,FALSE,TRUE,960.5,600.5,TRUE
21 January 2020,18:16:46,PointGrey,Computar,Rotation,45,44.8634,34.7439,-146.635,100000,20,50,1.8,,,14,45,34.7304,-86.5861,FALSE,TRUE,960.5,600.5,TRUE
21 January 2020,18:16:58,PointGrey,Computar,Rotation,90,89.9788,35.4961,-146.396,100000,20,50,1.8,,,13,90,34.7304,-86.5861,FALSE,TRUE,960.5,600.5,TRUE
21 January 2020,18:17:08,PointGrey,Computar,Rotation,135,135.013,35.3514,-146.29,100000,20,50,1.8,,,17,135,34.7304,-86.5861,FALSE,TRUE,960.5,600.5,TRUE
21 January 2020,18:17:16,PointGrey,Computar,Rotation,180,-179.133,34.7305,-144.774,100000,20,50,1.8,,,12,180,34.7304,-86.5861,FALSE,TRUE,960.5,600.5,TRUE
21 January 2020,18:17:28,PointGrey,Computar,Rotation,225,-134.218,34.0533,-144.952,100000,20,50,1.8,,,12,-135,34.7304,-86.5861,FALSE,TRUE,960.5,600.5,TRUE
21 January 2020,18:17:40,PointGrey,Computar,Rotation,270,-89.6826,33.6805,-145.821,100000,20,50,1.8,,,17,-90,34.7304,-86.5861,FALSE,TRUE,960.5,600.5,TRUE
21 January 2020,18:17:50,PointGrey,Computar,Rotation,315,-45.0774,33.5132,-146.499,100000,20,50,1.8,,,15,-45,34.7304,-86.5861,FALSE,TRUE,960.5,600.5,TRUE
,,,,,,,,,,,,,,,,,,,,,,,
6 March 2020,23:15:32,PointGrey,Fujion,Gain20,a,0.245778,34.8672,-85.4881,50000,20,35,1.4,0.01858,-0.15793,17,0.3375,34.7304,-86.5861,FALSE,FALSE,840.249491374,664.286295573,TRUE
6 March 2020,23:24:50,PointGrey,Edmund Optics,Gain20,b,-0.231483,35.0974,-85.7335,50000,20,100,2.8,,,4,0.3375,34.7304,-86.5861,FALSE,FALSE,500.479482015,608.71564738,TRUE
6 March 2020,23:05:34,PointGrey,Computar,Gain20,c,2.14039,35.0636,-85.7301,52246,20,50,1.8,,,13,0.3375,34.7304,-86.5861,FALSE,FALSE,1234.86068726,441.664952596,TRUE
6 March 2020,23:08:58,PointGrey,Computar,Gain20,d,1.8184,35.2513,-85.9186,52246,20,50,1.8,0.01858,-0.15793,13,0.3375,34.7304,-86.5861,FALSE,FALSE,1156.50344849,412.494679769,TRUE
6 March 2020,23:24:14,PointGrey,Edmund Optics,Gain20,e,-0.145687,35.1103,-85.7664,1000718,20,100,2.8,,,4,0.3375,34.7304,-86.5861,FALSE,FALSE,545.258677165,604.624938965,TRUE
6 March 2020,23:13:16,PointGrey,Fujion,Gain20,f,1.16543,34.8695,-85.623,52246,20,35,1.4,0.09397,-0.1059263,16,0.3375,34.7304,-86.5861,FALSE,FALSE,984.123718262,498.327840169,TRUE
6 March 2020,23:05:10,PointGrey,Computar,Gain20,g,1.74447,35.0562,-85.881,52246,20,50,1.8,,,13,0.3375,34.7304,-86.5861,FALSE,FALSE,1148.67396037,665.214294434,TRUE
,,,,,,,,,,,,,,,,,,,,,,,
6 March 2020,23:15:32,PointGrey,Fujion,Gain20,a,1.03814,34.8672,-85.4881,50000,20,35,1.4,0.01858,-0.15793,17,0.3375,34.7304,-86.5861,FALSE,TRUE,960.5,600.5,TRUE
6 March 2020,23:24:50,PointGrey,Edmund Optics,Gain20,b,0.844034,35.0974,-85.7334,50000,20,100,2.8,,,4,0.3375,34.7304,-86.5861,FALSE,TRUE,960.5,600.5,TRUE
6 March 2020,23:05:34,PointGrey,Computar,Gain20,c,0.821929,35.0637,-85.7301,52246,20,50,1.8,,,13,0.3375,34.7304,-86.5861,FALSE,TRUE,960.5,600.5,TRUE
6 March 2020,23:08:58,PointGrey,Computar,Gain20,d,0.881408,35.2513,-85.9186,52246,20,50,1.8,0.01858,-0.15793,13,0.3375,34.7304,-86.5861,FALSE,TRUE,960.5,600.5,TRUE
6 March 2020,23:24:14,PointGrey,Edmund Optics,Gain20,e,0.833601,35.1103,-85.7664,1000718,20,100,2.8,,,4,0.3375,34.7304,-86.5861,FALSE,TRUE,960.5,600.5,TRUE
6 March 2020,23:13:16,PointGrey,Fujion,Gain20,f,1.0286,34.8695,-85.623,52246,20,35,1.4,0.09397,-0.1059263,16,0.3375,34.7304,-86.5861,FALSE,TRUE,960.5,600.5,TRUE
6 March 2020,23:05:10,PointGrey,Computar,Gain20,g,0.802731,35.0562,-85.881,52246,20,50,1.8,,,13,0.3375,34.7304,-86.5861,FALSE,TRUE,960.5,600.5,TRUE
,,,,,,,,,,,,,,,,,,,,,,,
8 March 2020,21:51:32,PointGrey,Edmund Optics,Gain20,a,,,,10000,20,100,2.8,,,0,15.3375,34.7304,-86.5861,FALSE,FALSE,,,TRUE
8 March 2020,21:51:22,PointGrey,Edmund Optics,Gain20,b,15.8112,34.6703,-85.8066,20000,20,100,2.8,,,0,15.3375,34.7304,-86.5861,FALSE,FALSE,932.625020345,821.160888672,TRUE
8 March 2020,21:51:10,PointGrey,Edmund Optics,Gain20,c,15.8261,34.6699,-85.7968,30000,20,100,2.8,,,0,15.3375,34.7304,-86.5861,FALSE,FALSE,941.891082764,823.748433431,TRUE
8 March 2020,21:50:56,PointGrey,Edmund Optics,Gain20,d,15.8522,34.6741,-85.8055,40000,20,100,2.8,,,0,15.3375,34.7304,-86.5861,FALSE,FALSE,958.113850911,826.9784139,TRUE
8 March 2020,21:50:44,PointGrey,Edmund Optics,Gain20,e,16.0346,34.6755,-85.7944,50000,20,100,2.8,,,0,15.3375,34.7304,-86.5861,FALSE,FALSE,1023.36234538,850.641398112,TRUE
8 March 2020,21:50:36,PointGrey,Edmund Optics,Gain20,f,15.5772,34.6708,-85.812,60000,20,100,2.8,,,0,15.3375,34.7304,-86.5861,FALSE,FALSE,874.943735758,683.669687907,TRUE
8 March 2020,21:50:20,PointGrey,Edmund Optics,Gain20,g,16.0955,34.6703,-85.7957,70000,20,100,2.8,,,0,15.3375,34.7304,-86.5861,FALSE,FALSE,1046.57739258,858.94708252,TRUE
8 March 2020,21:50:10,PointGrey,Edmund Optics,Gain20,h,16.1164,34.6691,-85.8061,80000,20,100,2.8,,,0,15.3375,34.7304,-86.5861,FALSE,FALSE,1058.67791748,862.659301758,TRUE
8 March 2020,21:49:58,PointGrey,Edmund Optics,Gain20,i,14.3733,34.671,-85.829,90000,20,100,2.8,,,0,15.3375,34.7304,-86.5861,FALSE,FALSE,367.407747904,609.698099772,TRUE
8 March 2020,21:49:36,PointGrey,Edmund Optics,Gain20,j,16.0562,34.6692,-85.8062,100000,20,100,2.8,,,0,15.3375,34.7304,-86.5861,FALSE,FALSE,1035.93782552,850.659240723,TRUE
8 March 2020,21:49:12,PointGrey,Edmund Optics,Gain20,k,16.1163,34.6671,-85.8034,200000,20,100,2.8,,,0,15.3375,34.7304,-86.5861,FALSE,FALSE,1058.56046549,857.962361654,TRUE
8 March 2020,21:49:00,PointGrey,Edmund Optics,Gain20,l,16.2777,34.6675,-85.8016,300000,20,100,2.8,,,0,15.3375,34.7304,-86.5861,FALSE,FALSE,1125.88537598,882.773905436,TRUE
8 March 2020,21:48:48,PointGrey,Edmund Optics,Gain20,m,16.3177,34.6674,-85.8077,400000,20,100,2.8,,,0,15.3375,34.7304,-86.5861,FALSE,FALSE,1138.86932373,886.583740234,TRUE
8 March 2020,21:48:34,PointGrey,Edmund Optics,Gain20,n,16.3446,34.6673,-85.804,500000,20,100,2.8,,,0,15.3375,34.7304,-86.5861,FALSE,FALSE,1151.67338053,890.362589518,TRUE
8 March 2020,21:48:04,PointGrey,Edmund Optics,Gain20,o,14.2931,34.6684,-85.8519,600000,20,100,2.8,,,0,15.3375,34.7304,-86.5861,FALSE,FALSE,338.34896342,594.11541748,TRUE
8 March 2020,21:47:38,PointGrey,Edmund Optics,Gain20,p,16.2544,34.6691,-85.8295,700000,20,100,2.8,,,0,15.3375,34.7304,-86.5861,FALSE,FALSE,1172.25535075,707.454793294,TRUE
8 March 2020,21:46:48,PointGrey,Edmund Optics,Gain20,q,15.1206,34.6676,-86.031,800000,20,100,2.8,,,0,15.3375,34.7304,-86.5861,FALSE,FALSE,626.957631429,853.186035156,TRUE
8 March 2020,21:47:10,PointGrey,Edmund Optics,Gain20,r,16.3404,34.6682,-85.8584,900000,20,100,2.8,,,0,15.3375,34.7304,-86.5861,FALSE,FALSE,1206.462382,717.700337728,TRUE
,,,,,,,,,,,,,,,,,,,,,,,
8 March 2020,21:51:32,PointGrey,Edmund Optics,Gain20,a,,,,10000,20,100,2.8,,,0,15.3375,34.7304,-86.5861,FALSE,TRUE,960.5,600.5,TRUE
8 March 2020,21:51:22,PointGrey,Edmund Optics,Gain20,b,15.7176,34.6703,-85.8066,20000,20,100,2.8,,,0,15.3375,34.7304,-86.5861,FALSE,TRUE,960.5,600.5,TRUE
8 March 2020,21:51:10,PointGrey,Edmund Optics,Gain20,c,15.719,34.6699,-85.7968,30000,20,100,2.8,,,0,15.3375,34.7304,-86.5861,FALSE,TRUE,960.5,600.5,TRUE
8 March 2020,21:50:56,PointGrey,Edmund Optics,Gain20,d,15.7174,34.6741,-85.8055,40000,20,100,2.8,,,0,15.3375,34.7304,-86.5861,FALSE,TRUE,960.5,600.5,TRUE
8 March 2020,21:50:44,PointGrey,Edmund Optics,Gain20,e,15.7216,34.6755,-85.7944,50000,20,100,2.8,,,0,15.3375,34.7304,-86.5861,FALSE,TRUE,960.5,600.5,TRUE
8 March 2020,21:50:36,PointGrey,Edmund Optics,Gain20,f,15.7109,34.6708,-85.812,60000,20,100,2.8,,,0,15.3375,34.7304,-86.5861,FALSE,TRUE,960.5,600.5,TRUE
8 March 2020,21:50:20,PointGrey,Edmund Optics,Gain20,g,15.7183,34.6703,-85.7957,70000,20,100,2.8,,,0,15.3375,34.7304,-86.5861,FALSE,TRUE,960.5,600.5,TRUE
8 March 2020,21:50:10,PointGrey,Edmund Optics,Gain20,h,15.7172,34.6691,-85.8061,80000,20,100,2.8,,,0,15.3375,34.7304,-86.5861,FALSE,TRUE,960.5,600.5,TRUE
8 March 2020,21:49:58,PointGrey,Edmund Optics,Gain20,i,15.7114,34.671,-85.829,90000,20,100,2.8,,,0,15.3375,34.7304,-86.5861,FALSE,TRUE,960.5,600.5,TRUE
8 March 2020,21:49:36,PointGrey,Edmund Optics,Gain20,j,15.7142,34.6692,-85.8062,100000,20,100,2.8,,,0,15.3375,34.7304,-86.5861,FALSE,TRUE,960.5,600.5,TRUE
8 March 2020,21:49:12,PointGrey,Edmund Optics,Gain20,k,15.7115,34.6671,-85.8034,200000,20,100,2.8,,,0,15.3375,34.7304,-86.5861,FALSE,TRUE,960.5,600.5,TRUE
8 March 2020,21:49:00,PointGrey,Edmund Optics,Gain20,l,15.7093,34.6675,-85.8016,300000,20,100,2.8,,,0,15.3375,34.7304,-86.5861,FALSE,TRUE,960.5,600.5,TRUE
8 March 2020,21:48:48,PointGrey,Edmund Optics,Gain20,m,15.7117,34.6674,-85.8077,400000,20,100,2.8,,,0,15.3375,34.7304,-86.5861,FALSE,TRUE,960.5,600.5,TRUE
8 March 2020,21:48:34,PointGrey,Edmund Optics,Gain20,n,15.7095,34.6673,-85.804,500000,20,100,2.8,,,0,15.3375,34.7304,-86.5861,FALSE,TRUE,960.5,600.5,TRUE
8 March 2020,21:48:04,PointGrey,Edmund Optics,Gain20,o,15.7079,34.6684,-85.8519,600000,20,100,2.8,,,0,15.3375,34.7304,-86.5861,FALSE,TRUE,960.5,600.5,TRUE
8 March 2020,21:47:38,PointGrey,Edmund Optics,Gain20,p,15.7073,34.6691,-85.8295,700000,20,100,2.8,,,0,15.3375,34.7304,-86.5861,FALSE,TRUE,960.5,600.5,TRUE
8 March 2020,21:46:48,PointGrey,Edmund Optics,Gain20,q,15.7098,34.6676,-86.031,800000,20,100,2.8,,,0,15.3375,34.7304,-86.5861,FALSE,TRUE,960.5,600.5,TRUE
8 March 2020,21:47:10,PointGrey,Edmund Optics,Gain20,r,15.7094,34.6682,-85.8584,900000,20,100,2.8,,,0,15.3375,34.7304,-86.5861,FALSE,TRUE,960.5,600.5,TRUE
,,,,,,,,,,,,,,,,,,,,,,,
8 March 2020,21:52:54,PointGrey,Edmund Optics,Gain30,a,,,,,,,,,,,,,,,,,,FALSE
8 March 2020,21:52:54,PointGrey,Edmund Optics,Gain30,b,15.5636,34.6697,-86.7905,20000,30,100,2.8,,,0,15.3375,34.7304,-86.5861,FALSE,FALSE,842.340057373,795.635111491,TRUE
8 March 2020,21:54:26,PointGrey,Edmund Optics,Gain30,c,14.9173,34.67,-86.789,100000,30,100,2.8,,,0,15.3375,34.7304,-86.5861,FALSE,FALSE,664.645823161,367.463083903,TRUE
,,,,,,,,,,,,,,,,,,,,,,,
8 March 2020,21:52:54,PointGrey,Edmund Optics,Gain30,a,,,,,,,,,,,,,,,,,,FALSE
8 March 2020,21:52:54,PointGrey,Edmund Optics,Gain30,b,15.7024,34.6697,-85.8049,20000,30,100,2.8,,,0,15.3375,34.7304,-86.5861,FALSE,TRUE,960.5,600.5,TRUE
8 March 2020,21:54:26,PointGrey,Edmund Optics,Gain30,c,15.7171,34.67,-85.8034,100000,30,100,2.8,,,0,15.3375,34.7304,-86.5861,FALSE,TRUE,960.5,600.5,TRUE
,,,,,,,,,,,,,,,,,,,,,,,
8 March 2020,22:08:50,PointGrey,Edmund Optics,Rotation,a,1.09679,34.8288,-85.6809,500000,20,100,2.8,-0.1692,0.3068,1,0,34.7304,-86.5861,FALSE,FALSE,993.900044759,988.101236979,TRUE
8 March 2020,22:09:42,PointGrey,Edmund Optics,Rotation,b,46.0859,33.8264,-87.1421,500000,20,100,2.8,-0.1088,0.4174,1,45,34.7304,-86.5861,FALSE,FALSE,1141.15627035,742.190175374,TRUE
8 March 2020,22:10:26,PointGrey,Edmund Optics,Rotation,c,90.5352,33.5034,-87.3625,500000,20,100,2.8,-0.1939,-0.3071,1,90,34.7304,-86.5861,FALSE,FALSE,1031.73306274,641.754374186,TRUE
8 March 2020,22:11:00,PointGrey,Edmund Optics,Rotation,d,134.389,33.5871,-88.8062,500000,20,100,2.8,-0.2351,-0.09087,1,135,34.7304,-86.5861,FALSE,FALSE,1249.50374349,743.212849935,TRUE
8 March 2020,22:11:46,PointGrey,Edmund Optics,Rotation,e,179.127,34.4881,-89.498,500000,20,100,2.8,-0.1161,0.003649,1,180,34.7304,-86.5861,FALSE,FALSE,1013.18925985,228.629196803,TRUE
8 March 2020,22:12:34,PointGrey,Edmund Optics,Rotation,f,-136.026,35.6686,-89.0784,500000,20,100,2.8,-0.1331,-0.37741,1,-135,34.7304,-86.5861,FALSE,FALSE,1122.80147298,731.94984436,TRUE
8 March 2020,22:13:20,PointGrey,Edmund Optics,Rotation,g,-90.2124,35.1939,-88.0826,500000,20,100,2.8,0.7142,0.3043,1,-90,34.7304,-86.5861,FALSE,FALSE,987.7925059,715.523000081,TRUE
8 March 2020,22:14:04,PointGrey,Edmund Optics,Rotation,h,-44.3552,35.2924,-86.9026,500000,20,100,2.8,0.1184,0.5857,1,-45,34.7304,-86.5861,FALSE,FALSE,773.967356364,446.368115743,TRUE
8 March 2020,22:14:40,PointGrey,Edmund Optics,Rotation,i,1.32024,34.9892,-86.4215,500000,20,100,2.8,0.1941,0.1419,2,0,34.7304,-86.5861,FALSE,FALSE,1091.44340007,996.021443685,TRUE
,,,,,,,,,,,,,,,,,,,,,,,
8 March 2020,22:08:50,PointGrey,Edmund Optics,Rotation,a,0.996151,34.8288,-85.6809,500000,20,100,2.8,-0.1692,0.3068,1,0,34.7304,-86.5861,FALSE,TRUE,960.5,600.5,TRUE
8 March 2020,22:09:42,PointGrey,Edmund Optics,Rotation,b,45.5727,33.8264,-86.1565,500000,20,100,2.8,-0.1088,0.4174,1,45,34.7304,-86.5861,FALSE,TRUE,960.5,600.5,TRUE
8 March 2020,22:10:26,PointGrey,Edmund Optics,Rotation,c,90.4449,33.5034,-86.3769,500000,20,100,2.8,-0.1939,-0.3071,1,90,34.7304,-86.5861,FALSE,TRUE,960.5,600.5,TRUE
8 March 2020,22:11:00,PointGrey,Edmund Optics,Rotation,d,134.621,33.5871,-87.8205,500000,20,100,2.8,-0.2351,-0.09087,1,135,34.7304,-86.5861,FALSE,TRUE,960.5,600.5,TRUE
8 March 2020,22:11:46,PointGrey,Edmund Optics,Rotation,e,179.26,34.4881,-88.5124,500000,20,100,2.8,-0.1161,0.003649,1,180,34.7304,-86.5861,FALSE,TRUE,960.5,600.5,TRUE
8 March 2020,22:12:34,PointGrey,Edmund Optics,Rotation,f,-135.527,35.6686,-88.0928,500000,20,100,2.8,-0.1331,-0.37741,1,-135,34.7304,-86.5861,FALSE,TRUE,960.5,600.5,TRUE
8 March 2020,22:13:20,PointGrey,Edmund Optics,Rotation,g,-89.9357,35.1939,-87.0969,500000,20,100,2.8,0.7142,0.3043,1,-90,34.7304,-86.5861,FALSE,TRUE,960.5,600.5,TRUE
8 March 2020,22:14:04,PointGrey,Edmund Optics,Rotation,h,-44.2933,35.2924,-85.917,500000,20,100,2.8,0.1184,0.5857,1,-45,34.7304,-86.5861,FALSE,TRUE,960.5,600.5,TRUE
8 March 2020,22:14:40,PointGrey,Edmund Optics,Rotation,i,1.00277,34.9892,-85.4359,500000,20,100,2.8,0.1941,0.1419,2,0,34.7304,-86.5861,FALSE,,960.5,600.5,TRUE
,,,,,,,,,,,,,,,,,,,,,,,
8 March 2020,22:49:16,PointGrey,Fujion,F_number,a,-0.697668,35.003,-85.4605,200000,20,35,2,-0.12154,-0.06125,16,0,34.7304,-86.5861,FALSE,FALSE,705.898485819,705.214009603,TRUE
8 March 2020,22:48:30,PointGrey,Fujion,F_number,b,2.42282,35.0074,-85.4574,200000,20,35,14,-0.11059,-0.06824,16,0,34.7304,-86.5861,FALSE,FALSE,1180.05529785,513.623565674,TRUE
8 March 2020,22:47:38,PointGrey,Fujion,F_number,c,1.75009,35.0129,-85.4528,250000,20,35,14,,,16,0,34.7304,-86.5861,FALSE,FALSE,1081.27566528,389.966262817,TRUE
8 March 2020,22:49:54,PointGrey,Fujion,F_number,d,1.39671,34.9854,-85.432,200000,20,35,2.8,-0.12574,-0.050321,16,0,34.7304,-86.5861,FALSE,FALSE,1011.79774984,842.760782878,TRUE
,,,,,,,,,,,,,,,,,,,,,,,
8 March 2020,22:49:16,PointGrey,Fujion,F_number,a,1.01463,35.0029,-85.4603,200000,20,35,2,-0.12154,-0.06125,16,0,34.7304,-86.5861,FALSE,TRUE,960.5,600.5,TRUE
8 March 2020,22:48:30,PointGrey,Fujion,F_number,b,1.01376,35.0074,-85.4575,200000,20,35,14,-0.11059,-0.06824,16,0,34.7304,-86.5861,FALSE,TRUE,960.5,600.5,TRUE
8 March 2020,22:47:38,PointGrey,Fujion,F_number,c,1.01192,35.0129,-85.4528,250000,20,35,14,,,16,0,34.7304,-86.5861,FALSE,TRUE,960.5,600.5,TRUE
8 March 2020,22:49:54,PointGrey,Fujion,F_number,d,1.01737,34.9854,-85.432,200000,20,35,2.8,-0.12574,-0.050321,16,0,34.7304,-86.5861,FALSE,TRUE,960.5,600.5,TRUE
,,,,,,,,,,,,,,,,,,,,,,,
8 March 2020,22:24:10,PointGrey,Fujion,Gain20,a,2.89739,34.6311,-85.3708,50000,20,35,1.4,,,14,0,34.7304,-86.5861,FALSE,FALSE,1243.25583903,754.878234863,TRUE
8 March 2020,22:24:00,PointGrey,Fujion,Gain20,b,4.50882,34.6305,-85.3775,50000,20,35,1.4,,,14,0,34.7304,-86.5861,FALSE,FALSE,1470.68094889,830.707397461,TRUE
8 March 2020,22:23:48,PointGrey,Fujion,Gain20,c,2.97584,34.6322,-85.3844,70000,20,35,1.4,,,14,0,34.7304,-86.5861,FALSE,FALSE,1252.31591797,755.071634928,TRUE
8 March 2020,22:23:36,PointGrey,Fujion,Gain20,d,3.00181,34.6317,-85.3793,80000,20,35,1.4,,,13,0,34.7304,-86.5861,FALSE,FALSE,1256.32179769,755.290384928,TRUE
8 March 2020,22:23:24,PointGrey,Fujion,Gain20,e,3.03539,34.6332,-85.3873,90000,20,35,1.4,,,13,0,34.7304,-86.5861,FALSE,FALSE,1261.3343099,755.442647298,TRUE
8 March 2020,22:23:10,PointGrey,Fujion,Gain20,f,3.06071,34.6349,-85.3805,100000,20,35,1.4,,,13,0,34.7304,-86.5861,FALSE,FALSE,1265.65279134,755.535990397,TRUE
8 March 2020,22:22:58,PointGrey,Fujion,Gain20,g,3.08212,34.6348,-85.3846,200000,20,35,1.4,,,13,0,34.7304,-86.5861,FALSE,FALSE,1270.47491455,755.731506348,TRUE
8 March 2020,22:22:44,PointGrey,Fujion,Gain20,h,3.12213,34.6346,-85.3708,300000,20,35,1.4,,,13,0,34.7304,-86.5861,FALSE,FALSE,1274.39961751,756.011169434,TRUE
8 March 2020,22:22:32,PointGrey,Fujion,Gain20,i,3.14733,34.6398,-85.3739,400000,20,35,1.4,,,13,0,34.7304,-86.5861,FALSE,FALSE,1278.99499512,755.783548991,TRUE
8 March 2020,22:22:14,PointGrey,Fujion,Gain20,j,4.74932,34.6421,-85.3665,500000,20,35,1.4,,,14,0,34.7304,-86.5861,FALSE,FALSE,1507.81254069,832.469014486,TRUE
8 March 2020,22:29:22,PointGrey,Fujion,Gain20,k,4.41881,35.0805,-85.6897,500000,20,35,1.4,,,15,0,34.7304,-86.5861,FALSE,FALSE,1472.51334635,855.303263346,TRUE
8 March 2020,22:22:04,PointGrey,Fujion,Gain20,l,3.23475,34.6423,-85.4117,600000,20,35,1.4,,,12,0,34.7304,-86.5861,FALSE,FALSE,1292.52919515,755.943908691,TRUE
,,,,,,,,,,,,,,,,,,,,,,,
8 March 2020,22:24:10,PointGrey,Fujion,Gain20,a,0.985341,34.631,-85.3711,50000,20,35,1.4,,,14,0,34.7304,-86.5861,FALSE,TRUE,960.5,600.5,TRUE
8 March 2020,22:24:00,PointGrey,Fujion,Gain20,b,0.994855,34.6303,-85.3783,50000,20,35,1.4,,,14,0,34.7304,-86.5861,FALSE,TRUE,960.5,600.5,TRUE
8 March 2020,22:23:48,PointGrey,Fujion,Gain20,c,0.976633,34.6321,-85.3846,70000,20,35,1.4,,,14,0,34.7304,-86.5861,FALSE,TRUE,960.5,600.5,TRUE
8 March 2020,22:23:36,PointGrey,Fujion,Gain20,d,0.978193,34.6317,-85.3795,80000,20,35,1.4,,,13,0,34.7304,-86.5861,FALSE,TRUE,960.5,600.5,TRUE
8 March 2020,22:23:24,PointGrey,Fujion,Gain20,e,0.982817,34.6331,-85.3875,90000,20,35,1.4,,,13,0,34.7304,-86.5861,FALSE,TRUE,960.5,600.5,TRUE
8 March 2020,22:23:10,PointGrey,Fujion,Gain20,f,0.976372,34.6349,-85.3807,100000,20,35,1.4,,,13,0,34.7304,-86.5861,FALSE,TRUE,960.5,600.5,TRUE
8 March 2020,22:22:58,PointGrey,Fujion,Gain20,g,0.967947,34.6347,-85.3848,200000,20,35,1.4,,,13,0,34.7304,-86.5861,FALSE,TRUE,960.5,600.5,TRUE
8 March 2020,22:22:44,PointGrey,Fujion,Gain20,h,0.977635,34.6346,-85.371,300000,20,35,1.4,,,13,0,34.7304,-86.5861,FALSE,TRUE,960.5,600.5,TRUE
8 March 2020,22:22:32,PointGrey,Fujion,Gain20,i,0.977658,34.6397,-85.3742,400000,20,35,1.4,,,13,0,34.7304,-86.5861,FALSE,TRUE,960.5,600.5,TRUE
8 March 2020,22:22:14,PointGrey,Fujion,Gain20,j,0.984159,34.6419,-85.3672,500000,20,35,1.4,,,14,0,34.7304,-86.5861,FALSE,TRUE,960.5,600.5,TRUE
8 March 2020,22:29:22,PointGrey,Fujion,Gain20,k,0.829762,35.0803,-85.6905,500000,20,35,1.4,,,15,0,34.7304,-86.5861,FALSE,TRUE,960.5,600.5,TRUE
8 March 2020,22:22:04,PointGrey,Fujion,Gain20,l,0.976921,34.6422,-85.412,600000,20,35,1.4,,,12,0,34.7304,-86.5861,FALSE,TRUE,960.5,600.5,TRUE
,,,,,,,,,,,,,,,,,,,,,,,
8 March 2020,22:24:40,PointGrey,Fujion,Gain30,a,2.86271,34.6323,-85.4228,50000,30,35,1.4,,,14,0,34.7304,-86.5861,FALSE,FALSE,1236.74031576,754.370218913,TRUE
8 March 2020,22:24:58,PointGrey,Fujion,Gain30,b,2.77274,34.6333,-85.3804,60000,30,35,1.4,,,14,0,34.7304,-86.5861,FALSE,FALSE,1226.63028971,753.624491374,TRUE
8 March 2020,22:25:08,PointGrey,Fujion,Gain30,c,4.30622,34.6371,-85.365,70000,30,35,1.4,,,14,0,34.7304,-86.5861,FALSE,FALSE,1445.14892578,827.956400553,TRUE
8 March 2020,22:25:24,PointGrey,Fujion,Gain30,d,3.70114,34.6332,-85.3733,80000,30,35,1.4,,,14,0,34.7304,-86.5861,FALSE,FALSE,1378.62862142,628.491536458,TRUE
8 March 2020,22:25:36,PointGrey,Fujion,Gain30,e,4.25355,34.6354,-85.3741,90000,30,35,1.4,,,15,0,34.7304,-86.5861,FALSE,FALSE,1435.73087565,827.475077311,TRUE
8 March 2020,22:25:50,PointGrey,Fujion,Gain30,f,2.64645,34.6419,-85.3135,100000,30,35,1.4,,,14,0,34.7304,-86.5861,FALSE,FALSE,1206.9498291,751.803304036,TRUE
8 March 2020,22:26:12,PointGrey,Fujion,Gain30,g,2.59884,34.6336,-85.3837,200000,30,35,1.4,,,14,0,34.7304,-86.5861,FALSE,FALSE,1199.7983195,752.422281901,TRUE
8 March 2020,22:26:24,PointGrey,Fujion,Gain30,h,0.259281,34.6338,-85.3808,300000,30,35,1.4,,,14,0,34.7304,-86.5861,FALSE,FALSE,851.298950195,367.528129578,TRUE
,,,,,,,,,,,,,,,,,,,,,,,
8 March 2020,22:24:40,PointGrey,Fujion,Gain30,a,0.973658,34.6323,-85.423,50000,30,35,1.4,,,14,0,34.7304,-86.5861,FALSE,TRUE,960.5,600.5,TRUE
8 March 2020,22:24:58,PointGrey,Fujion,Gain30,b,0.967336,34.6332,-85.3806,60000,30,35,1.4,,,14,0,34.7304,-86.5861,FALSE,TRUE,960.5,600.5,TRUE
8 March 2020,22:25:08,PointGrey,Fujion,Gain30,c,0.982004,34.6369,-85.3657,70000,30,35,1.4,,,14,0,34.7304,-86.5861,FALSE,TRUE,960.5,600.5,TRUE
8 March 2020,22:25:24,PointGrey,Fujion,Gain30,d,0.976483,34.6332,-85.3737,80000,30,35,1.4,,,14,0,34.7304,-86.5861,FALSE,TRUE,960.5,600.5,TRUE
8 March 2020,22:25:36,PointGrey,Fujion,Gain30,e,0.987638,34.6353,-85.3747,90000,30,35,1.4,,,15,0,34.7304,-86.5861,FALSE,TRUE,960.5,600.5,TRUE
8 March 2020,22:25:50,PointGrey,Fujion,Gain30,f,0.968799,34.6419,-85.3136,100000,30,35,1.4,,,14,0,34.7304,-86.5861,FALSE,TRUE,960.5,600.5,TRUE
8 March 2020,22:26:12,PointGrey,Fujion,Gain30,g,0.973402,34.6336,-85.3837,200000,30,35,1.4,,,14,0,34.7304,-86.5861,FALSE,TRUE,960.5,600.5,TRUE
8 March 2020,22:26:24,PointGrey,Fujion,Gain30,h,0.991171,34.6339,-85.3806,300000,30,35,1.4,,,14,0,34.7304,-86.5861,FALSE,TRUE,960.5,600.5,TRUE
,,,,,,,,,,,,,,,,,,,,,,,
8 March 2020,22:30:32,PointGrey,Fujion,Rotation 1,a,1.99186,35.0703,-85.6526,200000,20,35,1.4,0.11527,-0.12704,14,0,34.7304,-86.5861,FALSE,FALSE,1130.39949544,702.603820801,TRUE
8 March 2020,22:31:18,PointGrey,Fujion,Rotation 1,b,46.8927,33.9749,-85.7352,200000,20,35,1.4,-0.1871,-0.072285,14,45,34.7304,-86.5861,FALSE,FALSE,918.224884033,866.780619303,TRUE
8 March 2020,22:31:58,PointGrey,Fujion,Rotation 1,c,91.1917,33.3771,-87.0543,200000,20,35,1.4,-0.2731,0.1298,13,90,34.7304,-86.5861,FALSE,FALSE,1029.70819092,786.800486247,TRUE
8 March 2020,22:32:44,PointGrey,Fujion,Rotation 1,d,136.192,33.655,-88.0514,200000,20,35,1.4,-0.069847,-0.073397,17,135,34.7304,-86.5861,FALSE,FALSE,893.120015462,928.229085286,TRUE
8 March 2020,22:33:24,PointGrey,Fujion,Rotation 1,e,-177.292,34.5946,-87.8574,200000,20,35,1.4,0.47369,-0.02255,13,180,34.7304,-86.5861,FALSE,FALSE,480.449584961,593.626912435,TRUE
8 March 2020,22:34:16,PointGrey,Fujion,Rotation 1,f,-133.809,35.8759,-88.1452,200000,20,35,1.4,-0.21747,0.34328,14,-135,34.7304,-86.5861,FALSE,FALSE,975.840179443,244.910385132,TRUE
8 March 2020,22:35:00,PointGrey,Fujion,Rotation 1,g,-88.1661,36.1694,-87.0732,200000,20,35,1.4,-0.19233,0.1587,14,-90,34.7304,-86.5861,FALSE,FALSE,667.132278442,323.853890737,TRUE
8 March 2020,22:35:44,PointGrey,Fujion,Rotation 1,h,-43.2656,35.776,-85.8292,200000,20,35,1.4,-0.2163,0.18694,19,-45,34.7304,-86.5861,FALSE,FALSE,889.425323486,313.885538737,TRUE
,,,,,,,,,,,,,,,,,,,,,,,
8 March 2020,22:30:32,PointGrey,Fujion,Rotation 1,a,0.831656,35.0703,-85.6527,200000,20,35,1.4,0.11527,-0.12704,14,0,34.7304,-86.5861,FALSE,TRUE,960.5,600.5,TRUE
8 March 2020,22:31:18,PointGrey,Fujion,Rotation 1,b,45.7986,33.9749,-85.7352,200000,20,35,1.4,-0.1871,-0.072285,14,45,34.7304,-86.5861,FALSE,TRUE,960.5,600.5,TRUE
8 March 2020,22:31:58,PointGrey,Fujion,Rotation 1,c,90.0651,33.3771,-87.0543,200000,20,35,1.4,-0.2731,0.1298,13,90,34.7304,-86.5861,FALSE,TRUE,960.5,600.5,TRUE
8 March 2020,22:32:44,PointGrey,Fujion,Rotation 1,d,134.501,33.655,-88.0515,200000,20,35,1.4,-0.069847,-0.073397,17,135,34.7304,-86.5861,FALSE,TRUE,960.5,600.5,TRUE
8 March 2020,22:33:24,PointGrey,Fujion,Rotation 1,e,179.619,34.5946,-87.858,200000,20,35,1.4,0.47369,-0.02255,13,180,34.7304,-86.5861,FALSE,TRUE,960.5,600.5,TRUE
8 March 2020,22:34:16,PointGrey,Fujion,Rotation 1,f,-135.52,35.8759,-88.1453,200000,20,35,1.4,-0.21747,0.34328,14,-135,34.7304,-86.5861,FALSE,TRUE,960.5,600.5,TRUE
8 March 2020,22:35:00,PointGrey,Fujion,Rotation 1,g,-89.9216,36.1697,-87.0734,200000,20,35,1.4,-0.19233,0.1587,14,-90,34.7304,-86.5861,FALSE,TRUE,960.5,600.5,TRUE
8 March 2020,22:35:44,PointGrey,Fujion,Rotation 1,h,-44.2012,35.776,-85.8292,200000,20,35,1.4,-0.2163,0.18694,19,-45,34.7304,-86.5861,FALSE,TRUE,960.5,600.5,TRUE
,,,,,,,,,,,,,,,,,,,,,,,
8 March 2020,22:36:34,PointGrey,Fujion,Rotation 2,a,1.15288,34.6849,-85.4024,200000,20,35,1.4,-0.1492,0.3073,15,0,34.7304,-86.5861,FALSE,FALSE,976.416524251,739.75583903,TRUE
8 March 2020,22:37:36,PointGrey,Fujion,Rotation 2,b,47.5089,34.0442,-85.6395,200000,20,35,1.4,-0.1868,-0.08348,16,45,34.7304,-86.5861,FALSE,FALSE,1060.48729451,845.166748047,TRUE
8 March 2020,22:38:30,PointGrey,Fujion,Rotation 2,c,92.2718,33.4678,-86.5442,200000,20,35,1.4,-0.17438,-0.3052,14,90,34.7304,-86.5861,FALSE,FALSE,796.374064128,903.833150228,TRUE
8 March 2020,22:39:18,PointGrey,Fujion,Rotation 2,d,136.193,33.5759,-87.4441,200000,20,35,1.4,0.052604,-0.5306,18,135,34.7304,-86.5861,FALSE,FALSE,822.670318604,764.677530924,TRUE
8 March 2020,22:39:56,PointGrey,Fujion,Rotation 2,e,-179.573,34.4344,-88.3464,200000,20,35,1.4,0.059427,-0.22299,13,180,34.7304,-86.5861,FALSE,FALSE,790.306101481,721.443033854,TRUE
8 March 2020,22:40:52,PointGrey,Fujion,Rotation 2,f,-133.338,35.7216,-87.6928,200000,20,35,1.4,0.1069,0.42714,14,-135,34.7304,-86.5861,FALSE,FALSE,663.448852539,472.882664998,TRUE
8 March 2020,22:41:44,PointGrey,Fujion,Rotation 2,g,-89.1158,36.1961,-87.1343,200000,20,35,1.4,-0.2117,0.106,14,-90,34.7304,-86.5861,FALSE,FALSE,660.457077026,469.539093018,TRUE
8 March 2020,22:42:40,PointGrey,Fujion,Rotation 2,h,-45.2259,35.3437,-86.6332,200000,20,35,1.4,0.53735,0.0485,19,-45,34.7304,-86.5861,FALSE,FALSE,696.309483846,465.092112223,TRUE
,,,,,,,,,,,,,,,,,,,,,,,
8 March 2020,22:36:34,PointGrey,Fujion,Rotation 2,a,1.03141,34.6849,-85.4024,200000,20,35,1.4,-0.1492,0.3073,15,0,34.7304,-86.5861,FALSE,TRUE,960.5,600.5,TRUE
8 March 2020,22:37:36,PointGrey,Fujion,Rotation 2,b,45.9067,34.0442,-85.6396,200000,20,35,1.4,-0.1868,-0.08348,16,45,34.7304,-86.5861,FALSE,TRUE,960.5,600.5,TRUE
8 March 2020,22:38:30,PointGrey,Fujion,Rotation 2,c,90.3381,33.4683,-86.5453,200000,20,35,1.4,-0.17438,-0.3052,14,90,34.7304,-86.5861,FALSE,TRUE,960.5,600.5,TRUE
8 March 2020,22:39:18,PointGrey,Fujion,Rotation 2,d,134.877,33.5759,-87.4442,200000,20,35,1.4,0.052604,-0.5306,18,135,34.7304,-86.5861,FALSE,TRUE,960.5,600.5,TRUE
8 March 2020,22:39:56,PointGrey,Fujion,Rotation 2,e,179.345,34.4345,-88.3465,200000,20,35,1.4,0.059427,-0.22299,13,180,34.7304,-86.5861,FALSE,TRUE,960.5,600.5,TRUE
8 March 2020,22:40:52,PointGrey,Fujion,Rotation 2,f,-135.306,35.7217,-87.693,200000,20,35,1.4,0.1069,0.42714,14,-135,34.7304,-86.5861,FALSE,TRUE,960.5,600.5,TRUE
8 March 2020,22:41:44,PointGrey,Fujion,Rotation 2,g,-89.9492,36.1962,-87.1344,200000,20,35,1.4,-0.2117,0.106,14,-90,34.7304,-86.5861,FALSE,TRUE,960.5,600.5,TRUE
8 March 2020,22:42:40,PointGrey,Fujion,Rotation 2,h,-44.6405,35.3438,-86.6332,200000,20,35,1.4,0.53735,0.0485,19,-45,34.7304,-86.5861,FALSE,TRUE,960.5,600.5,TRUE
,,,,,,,,,,,,,,,,,,,,,,,
8 March 2020,22:49:16,PointGrey,Fujion,F-number,a,1.50886,35.0041,-85.4622,200000,20,35,2,-0.12154,-0.06125,16,0,34.7304,-86.5861,TRUE,FALSE,1027.72688802,841.364562988,TRUE
8 March 2020,22:48:30,PointGrey,Fujion,F-number,b,2.41924,35.0087,-85.4589,200000,20,35,1.4,-0.11059,-0.06824,16,0,34.7304,-86.5861,TRUE,FALSE,1180.20141602,513.578323364,TRUE
8 March 2020,22:47:38,PointGrey,Fujion,F-number,c,0.591046,35.0143,-85.4543,250000,20,35,1.4,,,16,0,34.7304,-86.5861,TRUE,FALSE,897.682820638,569.599436442,TRUE
8 March 2020,22:49:54,PointGrey,Fujion,F-number,d,1.39215,34.9855,-85.4326,200000,20,35,2.8,-0.12574,-0.050321,16,0,34.7304,-86.5861,TRUE,FALSE,1011.85638428,842.883199056,TRUE
,,,,,,,,,,,,,,,,,,,,,,,
8 March 2020,22:24:10,PointGrey,Fujion,Gain20,a,2.90191,34.6313,-85.3722,50000,20,35,1.4,,,14,0,34.7304,-86.5861,TRUE,FALSE,1243.65679932,755.078552246,TRUE
8 March 2020,22:24:00,PointGrey,Fujion,Gain20,b,4.50965,34.6299,-85.3803,50000,20,35,1.4,,,14,0,34.7304,-86.5861,TRUE,FALSE,1471.26904297,830.989929199,TRUE
8 March 2020,22:23:48,PointGrey,Fujion,Gain20,c,2.97451,34.6323,-85.3856,70000,20,35,1.4,,,13,0,34.7304,-86.5861,TRUE,FALSE,1252.76523844,755.235270182,TRUE
8 March 2020,22:23:36,PointGrey,Fujion,Gain20,d,2.99566,34.6321,-85.3811,80000,20,35,1.4,,,13,0,34.7304,-86.5861,TRUE,FALSE,1256.72688802,755.491902669,TRUE
8 March 2020,22:23:24,PointGrey,Fujion,Gain20,e,3.03295,34.6334,-85.3883,90000,20,35,1.4,,,13,0,34.7304,-86.5861,TRUE,FALSE,1261.80175781,755.615865072,TRUE
8 March 2020,22:23:10,PointGrey,Fujion,Gain20,f,3.05844,34.6353,-85.3803,100000,20,35,1.4,,,13,0,34.7304,-86.5861,TRUE,FALSE,1266.11505127,755.697570801,TRUE
8 March 2020,22:22:58,PointGrey,Fujion,Gain20,g,3.0871,34.6345,-85.3853,200000,20,35,1.4,,,13,0,34.7304,-86.5861,TRUE,FALSE,1270.92649333,755.92775472,TRUE
8 March 2020,22:22:44,PointGrey,Fujion,Gain20,h,3.11941,34.6347,-85.3717,300000,20,35,1.4,,,13,0,34.7304,-86.5861,TRUE,FALSE,1274.85339355,756.180887858,TRUE
8 March 2020,22:22:32,PointGrey,Fujion,Gain20,i,3.14503,34.6398,-85.3749,400000,20,35,1.4,,,13,0,34.7304,-86.5861,TRUE,FALSE,1279.4482015,755.954020182,TRUE
8 March 2020,22:22:14,PointGrey,Fujion,Gain20,j,3.1847,34.6419,-85.3675,500000,20,35,1.4,,,13,0,34.7304,-86.5861,TRUE,FALSE,1285.41174316,756.017252604,TRUE
8 March 2020,22:29:22,PointGrey,Fujion,Gain20,k,3.1776,35.0815,-85.6904,500000,20,35,1.4,,,14,0,34.7304,-86.5861,TRUE,FALSE,1320.01245117,576.353983561,TRUE
8 March 2020,22:22:04,PointGrey,Fujion,Gain20,l,3.23871,34.6421,-85.4125,600000,20,35,1.4,,,12,0,34.7304,-86.5861,TRUE,FALSE,1292.77349854,756.423583984,TRUE
,,,,,,,,,,,,,,,,,,,,,,,
8 March 2020,22:24:40,PointGrey,Fujion,Gain30,a,2.86271,34.6323,-85.4228,50000,30,35,1.4,,,14,0,34.7304,-86.5861,TRUE,FALSE,1236.74031576,754.370218913,TRUE
8 March 2020,22:24:58,PointGrey,Fujion,Gain30,b,2.77274,34.6333,-85.3804,60000,30,35,1.4,,,14,0,34.7304,-86.5861,TRUE,FALSE,1226.63028971,753.624491374,TRUE
8 March 2020,22:25:08,PointGrey,Fujion,Gain30,c,4.30622,34.6371,-85.365,70000,30,35,1.4,,,14,0,34.7304,-86.5861,TRUE,FALSE,1445.14892578,827.956400553,TRUE
8 March 2020,22:25:24,PointGrey,Fujion,Gain30,d,3.70114,34.6332,-85.3733,80000,30,35,1.4,,,14,0,34.7304,-86.5861,TRUE,FALSE,1378.62862142,628.491536458,TRUE
8 March 2020,22:25:36,PointGrey,Fujion,Gain30,e,4.25355,34.6354,-85.3741,90000,30,35,1.4,,,15,0,34.7304,-86.5861,TRUE,FALSE,1435.73087565,827.475077311,TRUE
8 March 2020,22:25:50,PointGrey,Fujion,Gain30,f,2.64645,34.6419,-85.3135,100000,30,35,1.4,,,14,0,34.7304,-86.5861,TRUE,FALSE,1206.9498291,751.803304036,TRUE
8 March 2020,22:26:12,PointGrey,Fujion,Gain30,g,2.59884,34.6336,-85.3837,200000,30,35,1.4,,,14,0,34.7304,-86.5861,TRUE,FALSE,1199.7983195,752.422281901,TRUE
8 March 2020,22:26:24,PointGrey,Fujion,Gain30,h,0.259281,34.6338,-85.3808,300000,30,35,1.4,,,14,0,34.7304,-86.5861,TRUE,FALSE,851.298950195,367.528129578,TRUE
,,,,,,,,,,,,,,,,,,,,,,,
8 March 2020,22:30:32,PointGrey,Fujion,Rotation 1,a,1.99385,35.0707,-85.6531,200000,20,35,1.4,0.11527,-0.12704,14,0,34.7304,-86.5861,TRUE,FALSE,1130.64011637,702.705688477,TRUE
8 March 2020,22:31:18,PointGrey,Fujion,Rotation 1,b,47.312,33.9757,-85.7357,200000,20,35,1.4,-0.1871,-0.072285,14,45,34.7304,-86.5861,TRUE,FALSE,1171.04659017,730.721107483,TRUE
8 March 2020,22:31:58,PointGrey,Fujion,Rotation 1,c,91.1895,33.3773,-87.0537,200000,20,35,1.4,-0.2731,0.1298,13,90,34.7304,-86.5861,TRUE,FALSE,1029.73152669,787.05372111,TRUE
8 March 2020,22:32:44,PointGrey,Fujion,Rotation 1,d,136.187,33.6549,-88.0501,200000,20,35,1.4,-0.069847,-0.073397,17,135,34.7304,-86.5861,TRUE,FALSE,893.077707926,928.561625163,TRUE
8 March 2020,22:33:24,PointGrey,Fujion,Rotation 1,e,-177.291,34.5938,-87.8561,200000,20,35,1.4,0.47369,-0.02255,13,180,34.7304,-86.5861,TRUE,FALSE,480.035644531,593.613026937,TRUE
8 March 2020,22:34:16,PointGrey,Fujion,Rotation 1,f,-133.815,35.8739,-88.1449,200000,20,35,1.4,-0.21747,0.34328,14,-135,34.7304,-86.5861,TRUE,FALSE,975.838378906,244.728363037,TRUE
8 March 2020,22:35:00,PointGrey,Fujion,Rotation 1,g,-88.1746,36.1677,-87.0735,200000,20,35,1.4,-0.19233,0.1587,14,-90,34.7304,-86.5861,TRUE,FALSE,666.804885864,323.775769552,TRUE
8 March 2020,22:35:44,PointGrey,Fujion,Rotation 1,h,-42.2746,35.7752,-85.83,200000,20,35,1.4,-0.2163,0.18694,19,-45,34.7304,-86.5861,TRUE,FALSE,1386.51298014,662.02961731,TRUE
,,,,,,,,,,,,,,,,,,,,,,,
8 March 2020,22:36:34,PointGrey,Fujion,Rotation 2,a,1.15354,34.685,-85.4028,200000,20,35,1.4,-0.1492,0.3073,15,0,34.7304,-86.5861,TRUE,FALSE,976.373433431,739.891337077,TRUE
8 March 2020,22:37:36,PointGrey,Fujion,Rotation 2,b,47.5209,34.0452,-85.6467,200000,20,35,1.4,-0.1868,-0.08348,16,45,34.7304,-86.5861,TRUE,FALSE,1060.45842489,845.588368734,TRUE
8 March 2020,22:38:30,PointGrey,Fujion,Rotation 2,c,91.2504,33.468,-86.5458,200000,20,35,1.4,-0.17438,-0.3052,14,90,34.7304,-86.5861,TRUE,FALSE,937.986343384,747.704803467,TRUE
8 March 2020,22:39:18,PointGrey,Fujion,Rotation 2,d,135.338,33.576,-87.4437,200000,20,35,1.4,0.052604,-0.5306,18,135,34.7304,-86.5861,TRUE,FALSE,1032.36376953,780.084859212,TRUE
8 March 2020,22:39:56,PointGrey,Fujion,Rotation 2,e,-179.587,34.4354,-88.3484,200000,20,35,1.4,0.059427,-0.22299,13,180,34.7304,-86.5861,TRUE,FALSE,790.177998861,721.469543457,TRUE
8 March 2020,22:40:52,PointGrey,Fujion,Rotation 2,f,-133.341,35.7204,-87.6923,200000,20,35,1.4,0.1069,0.42714,14,-135,34.7304,-86.5861,TRUE,FALSE,663.310506185,472.820495605,TRUE
8 March 2020,22:41:44,PointGrey,Fujion,Rotation 2,g,-90.0124,36.1709,-87.141,200000,20,35,1.4,-0.2117,0.106,14,-90,34.7304,-86.5861,TRUE,FALSE,501.90872701,607.72833252,TRUE
8 March 2020,22:42:40,PointGrey,Fujion,Rotation 2,h,-43.2833,35.3439,-86.6329,200000,20,35,1.4,0.53735,0.0485,19,-45,34.7304,-86.5861,TRUE,FALSE,1362.53853353,745.017740885,TRUE
,,,,,,,,,,,,,,,,,,,,,,,
26 March 2020,19:59:24,PointGrey,Fujion,Flat_1,0a,-0.705759,34.9071,-85.5855,6069,30,35,,,,10,0,34.7304,-86.5861,FALSE,FALSE,714.495564779,542.029673258,TRUE
26 March 2020,20:01:52,PointGrey,Fujion,Flat_1,0b,-1.03551,34.91,-85.5951,6069,30,35,,0.0707,-0.00204,10,0,34.7304,-86.5861,FALSE,FALSE,661.070912679,542.694590251,TRUE
26 March 2020,20:02:44,PointGrey,Fujion,Flat_1,45,44.2065,33.7036,-86.114,6069,30,35,,-0.0612,0.323,20,45,34.7304,-86.5861,FALSE,FALSE,837.985707601,430.133351644,TRUE
26 March 2020,20:03:32,PointGrey,Fujion,Flat_1,90,91.4358,33.5361,-87.0908,6069,30,35,,0.124,0.216,24,90,34.7304,-86.5861,FALSE,FALSE,1323.48514811,841.991841634,TRUE
26 March 2020,20:04:18,PointGrey,Fujion,Flat_1,135,135.038,33.9431,-87.3167,6069,30,35,,0.454,-0.294,17,135,34.7304,-86.5861,FALSE,FALSE,993.1484375,645.927963257,TRUE
26 March 2020,20:05:04,PointGrey,Fujion,Flat_1,180,178.541,34.6341,-87.5115,6069,30,35,,0.669,-0.00433,11,180,34.7304,-86.5861,FALSE,FALSE,1146.78133138,626.282023112,TRUE
26 March 2020,20:05:46,PointGrey,Fujion,Flat_1,225,-134.185,35.1331,-88.0738,6069,30,35,,0.363,-0.193,15,225,34.7304,-86.5861,FALSE,FALSE,748.020487467,514.931096395,TRUE
26 March 2020,20:07:14,PointGrey,Fujion,Flat_1,270,-90.2338,35.1669,-86.8402,6069,30,35,,0.832,0.225,20,270,34.7304,-86.5861,FALSE,FALSE,470.75668335,670.263865153,TRUE
26 March 2020,20:07:46,PointGrey,Fujion,Flat_1,315,-44.8564,34.9947,-86.3077,6069,30,35,,0.652,0.345,15,315,34.7304,-86.5861,FALSE,FALSE,659.034657796,374.167748769,TRUE
,,,,,,,,,,,,,,,,,,,,,,,
26 March 2020,20:09:40,PointGrey,Fujion,Flat_2,0,-2.12938,34.7503,-86.1968,6069,30,35,,0.57,0.16,10,0,34.7304,-86.5861,FALSE,FALSE,541.625610352,565.321461995,TRUE
26 March 2020,20:10:20,PointGrey,Fujion,Flat_2,45,43.1689,33.8134,-85.8187,6069,30,35,,-0.159,0.17,15,45,34.7304,-86.5861,FALSE,FALSE,704.695841312,286.444880168,TRUE
26 March 2020,20:11:28,PointGrey,Fujion,Flat_2,90,90.0385,33.4158,-86.6535,6069,30,35,,-0.14,-0.14,21,90,34.7304,-86.5861,FALSE,FALSE,868.250325521,561.140299479,TRUE
26 March 2020,20:12:14,PointGrey,Fujion,Flat_2,135,134.317,33.6412,-87.5624,6069,30,35,,0.0743,-0.334,16,135,34.7304,-86.5861,FALSE,FALSE,1251.16107178,750.756612142,TRUE
26 March 2020,20:12:50,PointGrey,Fujion,Flat_2,180,176.069,34.5899,-88.1842,6069,30,35,,0.245,-0.0185,10,180,34.7304,-86.5861,FALSE,FALSE,1440.15466309,507.911727905,TRUE
26 March 2020,20:13:20,PointGrey,Fujion,Flat_2,225,-137.267,35.2478,-88.2013,6069,30,35,,0.209,-0.166,15,225,34.7304,-86.5861,FALSE,FALSE,1007.22772217,920.482096354,TRUE
26 March 2020,20:14:34,PointGrey,Fujion,Flat_2,270,-90.4343,35.2809,-87.2542,6069,30,35,,0.734,-0.00364,18,270,34.7304,-86.5861,FALSE,FALSE,454.977238973,659.863494873,TRUE
26 March 2020,20:15:18,PointGrey,Fujion,Flat_2,315,-45.7845,35.0782,-86.4821,6069,30,35,,0.704,0.191,14,315,34.7304,-86.5861,FALSE,FALSE,542.896952311,478.697130839,TRUE
,,,,,,,,,,,,,,,,,,,,,,,
26 March 2020,20:33:24,PointGrey,Fujion,neg5el_1,0,,,,6069,30,35,,,,,0,34.7304,-86.5861,FALSE,FALSE,,,FALSE
26 March 2020,20:34:00,PointGrey,Fujion,neg5el_1,45,,,,6069,30,35,,,,,45,34.7304,-86.5861,FALSE,FALSE,,,FALSE
26 March 2020,20:34:28,PointGrey,Fujion,neg5el_1,90,,,,6069,30,35,,,,,90,34.7304,-86.5861,FALSE,FALSE,,,FALSE
26 March 2020,20:35:00,PointGrey,Fujion,neg5el_1,135,136.686,29.5632,-83.8557,6069,30,35,,-1.23599,5.51654,21,135,34.7304,-86.5861,FALSE,FALSE,1100.87221273,677.270645142,TRUE
26 March 2020,20:35:30,PointGrey,Fujion,neg5el_1,180,177.234,29.3428,-88.2086,6069,30,35,,-0.105,-5.32,24,180,34.7304,-86.5861,FALSE,FALSE,1452.43575033,718.758066813,TRUE
26 March 2020,20:36:08,PointGrey,Fujion,neg5el_1,225,-137.04,31.7603,-92.376,6069,30,35,,-0.199,-5.15,20,225,34.7304,-86.5861,FALSE,FALSE,647.45892334,692.82619222,TRUE
26 March 2020,20:36:38,PointGrey,Fujion,neg5el_1,270,-94.8877,36.1982,-93.5355,6069,30,35,,-0.601,-5.18,16,270,34.7304,-86.5861,FALSE,FALSE,739.246828715,830.278106689,TRUE
26 March 2020,20:37:08,PointGrey,Fujion,neg5el_1,315,,,,6069,30,35,,,,,315,34.7304,-86.5861,FALSE,FALSE,,,FALSE
,,,,,,,,,,,,,,,,,,,,,,,
26 March 2020,20:37:50,PointGrey,Fujion,neg5el_2,0,,,,6069,30,35,,,,,0,34.7304,-86.5861,FALSE,FALSE,,,FALSE
26 March 2020,20:38:18,PointGrey,Fujion,neg5el_2,45,,,,6069,30,35,,,,,45,34.7304,-86.5861,FALSE,FALSE,,,FALSE
26 March 2020,20:38:44,PointGrey,Fujion,neg5el_2,90,94.3685,32.8393,-80.141,6069,30,35,,-0.868,-5.66,13,90,34.7304,-86.5861,FALSE,FALSE,1467.47505697,702.6690979,TRUE
26 March 2020,20:39:08,PointGrey,Fujion,neg5el_2,135,136.398,29.708,-83.7852,6069,30,35,,-0.757,-5.47,20,135,34.7304,-86.5861,FALSE,FALSE,1185.59690348,615.57782491,TRUE
26 March 2020,20:39:40,PointGrey,Fujion,neg5el_2,180,179.073,28.9097,-88.227,6069,30,35,,-0.167,-5.76,21,180,34.7304,-86.5861,FALSE,FALSE,1054.37207985,504.415827433,TRUE
26 March 2020,20:40:08,PointGrey,Fujion,neg5el_2,225,-139.049,31.9862,-92.5125,6069,30,35,,-0.54,-5.08,17,225,34.7304,-86.5861,FALSE,FALSE,980.815409342,824.035909017,TRUE
26 March 2020,20:40:56,PointGrey,Fujion,neg5el_2,270,-94.1071,35.8935,-93.5058,6069,30,35,,-0.38,-5.12,18,270,34.7304,-86.5861,FALSE,FALSE,392.992230733,730.198008219,TRUE
26 March 2020,20:41:24,PointGrey,Fujion,neg5el_2,315,,,,6069,30,35,,,,,315,34.7304,-86.5861,FALSE,FALSE,,,FALSE
,,,,,,,,,,,,,,,,,,,,,,,
26 March 2020,20:20:38,PointGrey,Fujion,pos5el_1,0,0.52138,30.175,-85.3312,6069,30,35,,-0.3,4.67,22,0,34.7304,-86.5861,FALSE,FALSE,837.192718506,487.502532959,TRUE
26 March 2020,20:21:08,PointGrey,Fujion,pos5el_1,45,45.0093,29.8722,-89.7839,6069,30,35,,-0.5824,5.21,24,45,34.7304,-86.5861,FALSE,FALSE,1214.44980876,737.870829264,TRUE
26 March 2020,20:21:46,PointGrey,Fujion,pos5el_1,90,86.3217,33.3261,-92.5024,6069,30,35,,-0.32,4.58,25,90,34.7304,-86.5861,FALSE,FALSE,842.508839925,474.703333537,TRUE
26 March 2020,20:22:32,PointGrey,Fujion,pos5el_1,135,130.58,36.7125,-92.7687,6069,30,35,,-0.65,4.78,16,135,34.7304,-86.5861,FALSE,FALSE,1416.72554525,690.66595459,TRUE
26 March 2020,20:23:08,PointGrey,Fujion,pos5el_1,180,,,,6069,30,35,,,,,180,34.7304,-86.5861,FALSE,FALSE,,,FALSE
26 March 2020,20:24:20,PointGrey,Fujion,pos5el_1,225,,,,6069,30,35,,,,,225,34.7304,-86.5861,FALSE,FALSE,,,FALSE
26 March 2020,20:24:48,PointGrey,Fujion,pos5el_1,270,,,,6069,30,35,,,,,270,34.7304,-86.5861,FALSE,FALSE,,,FALSE
26 March 2020,20:25:32,PointGrey,Fujion,pos5el_1,315,,,,6069,30,35,,,,,315,34.7304,-86.5861,FALSE,FALSE,,,FALSE
,,,,,,,,,,,,,,,,,,,,,,,
26 March 2020,20:26:16,PointGrey,Fujion,pos5el_2,0,-0.225233,29.5201,-85.4897,6069,30,35,,-0.196,5.32,24,0,34.7304,-86.5861,FALSE,FALSE,717.771372477,557.794331868,TRUE
26 March 2020,20:26:50,PointGrey,Fujion,pos5el_2,45,44.4062,29.9235,-89.8016,6069,30,35,,-0.636,5.2,25,45,34.7304,-86.5861,FALSE,FALSE,1123.84942627,641.605153402,TRUE
26 March 2020,20:27:34,PointGrey,Fujion,pos5el_2,90,86.0811,32.9144,-92.5861,6069,30,35,,-0.677,4.78,24,90,34.7304,-86.5861,FALSE,FALSE,1206.540507,384.235799154,TRUE
26 March 2020,20:28:06,PointGrey,Fujion,pos5el_2,135,130.293,36.9156,-92.1052,6069,30,35,,-0.146,4.59,13,135,34.7304,-86.5861,FALSE,FALSE,1313.40804036,480.527628581,TRUE
26 March 2020,20:28:36,PointGrey,Fujion,pos5el_2,180,,,,6069,30,35,,,,,180,34.7304,-86.5861,FALSE,FALSE,,,FALSE
26 March 2020,20:29:10,PointGrey,Fujion,pos5el_2,225,,,,6069,30,35,,,,,225,34.7304,-86.5861,FALSE,FALSE,,,FALSE
26 March 2020,20:29:44,PointGrey,Fujion,pos5el_2,270,,,,6069,30,35,,,,,270,34.7304,-86.5861,FALSE,FALSE,,,FALSE
26 March 2020,20:30:18,PointGrey,Fujion,pos5el_2,315,,,,6069,30,35,,,,,315,34.7304,-86.5861,FALSE,FALSE,,,FALSE
